7 The ISCAP Panel – crossLagR: A User Guide to Cross-Lagged Panel Models in R
…
# A tibble: 5 × 3
  variable                    n_miss pct_miss
  <chr>                        <int>    <num>
1 system_represents_interests   4015     38.5
2 critical_of_system            4002     38.4
3 system_needs_changes          3999     38.4
4 live_our_government           3997     38.3
5 political_legitimacy          3982     38.2

Below I display the missing data patterns across all variables and respondents in the dataset. Dark cells indicate missing values.

7.3 Missing Data by Wave

# A tibble: 24 × 4
# Groups:   wave [4]
   wave  variable                    n_miss pct_miss
   <chr> <chr>                        <int>    <num>
 1 2012  system_represents_interests     68     2.61
 2 2012  critical_of_system              61     2.34
 3 2012  system_needs_changes            58     2.23
 4 2012  live_our_government             57     2.19
 5 2012  political_legitimacy            52     2.00
 6 2012  identifier                       0     0   
 7 2016  critical_of_system             935    35.9 
 8 2016  system_needs_changes           934    35.8 
 9 2016  live_our_government            933    35.8 
10 2016  system_represents_interests    933    35.8 
# ℹ 14 more rows
…
